%YAML 1.1
%TAG !u! tag:unity3d.com,2011:
--- !u!29 &1
OcclusionCullingSettings:
  m_ObjectHideFlags: 0
  serializedVersion: 2
  m_OcclusionBakeSettings:
    smallestOccluder: 5
    smallestHole: 0.25
    backfaceThreshold: 100
  m_SceneGUID: 00000000000000000000000000000000
  m_OcclusionCullingData: {fileID: 0}
--- !u!104 &2
RenderSettings:
  m_ObjectHideFlags: 0
  serializedVersion: 9
  m_Fog: 0
  m_FogColor: {r: 0.5, g: 0.5, b: 0.5, a: 1}
  m_FogMode: 3
  m_FogDensity: 0.01
  m_LinearFogStart: 0
  m_LinearFogEnd: 300
  m_AmbientSkyColor: {r: 0.212, g: 0.227, b: 0.259, a: 1}
  m_AmbientEquatorColor: {r: 0.114, g: 0.125, b: 0.133, a: 1}
  m_AmbientGroundColor: {r: 0.047, g: 0.043, b: 0.035, a: 1}
  m_AmbientIntensity: 1
  m_AmbientMode: 0
  m_SubtractiveShadowColor: {r: 0.42, g: 0.478, b: 0.627, a: 1}
  m_SkyboxMaterial: {fileID: 10304, guid: 0000000000000000f000000000000000, type: 0}
  m_HaloStrength: 0.5
  m_FlareStrength: 1
  m_FlareFadeSpeed: 3
  m_HaloTexture: {fileID: 0}
  m_SpotCookie: {fileID: 10001, guid: 0000000000000000e000000000000000, type: 0}
  m_DefaultReflectionMode: 0
  m_DefaultReflectionResolution: 128
  m_ReflectionBounces: 1
  m_ReflectionIntensity: 1
  m_CustomReflection: {fileID: 0}
  m_Sun: {fileID: 0}
  m_IndirectSpecularColor: {r: 0.44657898, g: 0.4964133, b: 0.5748178, a: 1}
  m_UseRadianceAmbientProbe: 0
--- !u!157 &3
LightmapSettings:
  m_ObjectHideFlags: 0
  serializedVersion: 11
  m_GIWorkflowMode: 0
  m_GISettings:
    serializedVersion: 2
    m_BounceScale: 1
    m_IndirectOutputScale: 1
    m_AlbedoBoost: 1
    m_TemporalCoherenceThreshold: 1
    m_EnvironmentLightingMode: 0
    m_EnableBakedLightmaps: 1
    m_EnableRealtimeLightmaps: 1
  m_LightmapEditorSettings:
    serializedVersion: 10
    m_Resolution: 2
    m_BakeResolution: 40
    m_AtlasSize: 1024
    m_AO: 0
    m_AOMaxDistance: 1
    m_CompAOExponent: 1
    m_CompAOExponentDirect: 0
    m_Padding: 2
    m_LightmapParameters: {fileID: 0}
    m_LightmapsBakeMode: 1
    m_TextureCompression: 1
    m_FinalGather: 0
    m_FinalGatherFiltering: 1
    m_FinalGatherRayCount: 256
    m_ReflectionCompression: 2
    m_MixedBakeMode: 2
    m_BakeBackend: 1
    m_PVRSampling: 1
    m_PVRDirectSampleCount: 32
    m_PVRSampleCount: 500
    m_PVRBounces: 2
    m_PVRFilterTypeDirect: 0
    m_PVRFilterTypeIndirect: 0
    m_PVRFilterTypeAO: 0
    m_PVRFilteringMode: 1
    m_PVRCulling: 1
    m_PVRFilteringGaussRadiusDirect: 1
    m_PVRFilteringGaussRadiusIndirect: 5
    m_PVRFilteringGaussRadiusAO: 2
    m_PVRFilteringAtrousPositionSigmaDirect: 0.5
    m_PVRFilteringAtrousPositionSigmaIndirect: 2
    m_PVRFilteringAtrousPositionSigmaAO: 1
    m_ShowResolutionOverlay: 1
  m_LightingDataAsset: {fileID: 0}
  m_UseShadowmask: 1
--- !u!196 &4
NavMeshSettings:
  serializedVersion: 2
  m_ObjectHideFlags: 0
  m_BuildSettings:
    serializedVersion: 2
    agentTypeID: 0
    agentRadius: 0.5
    agentHeight: 2
    agentSlope: 45
    agentClimb: 0.4
    ledgeDropHeight: 0
    maxJumpAcrossDistance: 0
    minRegionArea: 2
    manualCellSize: 0
    cellSize: 0.16666667
    manualTileSize: 0
    tileSize: 256
    accuratePlacement: 0
    debug:
      m_Flags: 0
  m_NavMeshData: {fileID: 0}
--- !u!1001 &679264385
Prefab:
  m_ObjectHideFlags: 0
  serializedVersion: 2
  m_Modification:
    m_TransformParent: {fileID: 0}
    m_Modifications:
    - target: {fileID: 114227506169601558, guid: 850b86aab8aa72b4588ede6ced2d4cf6,
        type: 2}
      propertyPath: SetSizePrefabs.Array.size
      value: 7
      objectReference: {fileID: 0}
    - target: {fileID: 114227506169601558, guid: 850b86aab8aa72b4588ede6ced2d4cf6,
        type: 2}
      propertyPath: AsteroidPrefabs.Array.size
      value: 11
      objectReference: {fileID: 0}
    - target: {fileID: 4197236740679458, guid: 850b86aab8aa72b4588ede6ced2d4cf6, type: 2}
      propertyPath: m_LocalPosition.x
      value: 1180.5492
      objectReference: {fileID: 0}
    - target: {fileID: 4197236740679458, guid: 850b86aab8aa72b4588ede6ced2d4cf6, type: 2}
      propertyPath: m_LocalPosition.y
      value: 25.20797
      objectReference: {fileID: 0}
    - target: {fileID: 4197236740679458, guid: 850b86aab8aa72b4588ede6ced2d4cf6, type: 2}
      propertyPath: m_LocalPosition.z
      value: -20
      objectReference: {fileID: 0}
    - target: {fileID: 4197236740679458, guid: 850b86aab8aa72b4588ede6ced2d4cf6, type: 2}
      propertyPath: m_LocalRotation.x
      value: 0
      objectReference: {fileID: 0}
    - target: {fileID: 4197236740679458, guid: 850b86aab8aa72b4588ede6ced2d4cf6, type: 2}
      propertyPath: m_LocalRotation.y
      value: 0
      objectReference: {fileID: 0}
    - target: {fileID: 4197236740679458, guid: 850b86aab8aa72b4588ede6ced2d4cf6, type: 2}
      propertyPath: m_LocalRotation.z
      value: 0
      objectReference: {fileID: 0}
    - target: {fileID: 4197236740679458, guid: 850b86aab8aa72b4588ede6ced2d4cf6, type: 2}
      propertyPath: m_LocalRotation.w
      value: 1
      objectReference: {fileID: 0}
    - target: {fileID: 4197236740679458, guid: 850b86aab8aa72b4588ede6ced2d4cf6, type: 2}
      propertyPath: m_RootOrder
      value: 1
      objectReference: {fileID: 0}
    - target: {fileID: 114227506169601558, guid: 850b86aab8aa72b4588ede6ced2d4cf6,
        type: 2}
      propertyPath: SetSizePrefabs.Array.data[0]
      value: 
      objectReference: {fileID: 1311109738232648, guid: 5a1f7c98f9da0d5419da0a351b574d66,
        type: 2}
    - target: {fileID: 114227506169601558, guid: 850b86aab8aa72b4588ede6ced2d4cf6,
        type: 2}
      propertyPath: SetSizePrefabs.Array.data[1]
      value: 
      objectReference: {fileID: 1947154967007688, guid: e97f6054193f0264f8b07e8dd6f3c572,
        type: 2}
    - target: {fileID: 114227506169601558, guid: 850b86aab8aa72b4588ede6ced2d4cf6,
        type: 2}
      propertyPath: SetSizePrefabs.Array.data[2]
      value: 
      objectReference: {fileID: 1574928977005272, guid: 8224c6859db713f4cbfc03f8c01bc9ec,
        type: 2}
    - target: {fileID: 114227506169601558, guid: 850b86aab8aa72b4588ede6ced2d4cf6,
        type: 2}
      propertyPath: SetSizePrefabs.Array.data[3]
      value: 
      objectReference: {fileID: 1941271351103484, guid: 7030fb25d7d94f346a6841de1e8f43a1,
        type: 2}
    - target: {fileID: 1480784969931878, guid: 850b86aab8aa72b4588ede6ced2d4cf6, type: 2}
      propertyPath: m_Name
      value: GuideBarDown
      objectReference: {fileID: 0}
    - target: {fileID: 1374613903264156, guid: 850b86aab8aa72b4588ede6ced2d4cf6, type: 2}
      propertyPath: m_Name
      value: GuideBarUp
      objectReference: {fileID: 0}
    - target: {fileID: 114227506169601558, guid: 850b86aab8aa72b4588ede6ced2d4cf6,
        type: 2}
      propertyPath: AsteroidPrefabs.Array.data[3]
      value: 
      objectReference: {fileID: 1353526786555350, guid: 04fb02a255f449b41bf803888bd4909e,
        type: 2}
    - target: {fileID: 114227506169601558, guid: 850b86aab8aa72b4588ede6ced2d4cf6,
        type: 2}
      propertyPath: AsteroidPrefabs.Array.data[2]
      value: 
      objectReference: {fileID: 1941271351103484, guid: 7030fb25d7d94f346a6841de1e8f43a1,
        type: 2}
    - target: {fileID: 114227506169601558, guid: 850b86aab8aa72b4588ede6ced2d4cf6,
        type: 2}
      propertyPath: AsteroidPrefabs.Array.data[1]
      value: 
      objectReference: {fileID: 1424035413254376, guid: 501e5b46724f6d343a7419616d55d336,
        type: 2}
    - target: {fileID: 114227506169601558, guid: 850b86aab8aa72b4588ede6ced2d4cf6,
        type: 2}
      propertyPath: SetSizePrefabs.Array.data[4]
      value: 
      objectReference: {fileID: 1424035413254376, guid: 501e5b46724f6d343a7419616d55d336,
        type: 2}
    - target: {fileID: 114227506169601558, guid: 850b86aab8aa72b4588ede6ced2d4cf6,
        type: 2}
      propertyPath: SetSizePrefabs.Array.data[5]
      value: 
      objectReference: {fileID: 1319278603809432, guid: d90c113576e9fad438c26f896228ac1c,
        type: 2}
    - target: {fileID: 114227506169601558, guid: 850b86aab8aa72b4588ede6ced2d4cf6,
        type: 2}
      propertyPath: AsteroidPrefabs.Array.data[0]
      value: 
      objectReference: {fileID: 1319278603809432, guid: d90c113576e9fad438c26f896228ac1c,
        type: 2}
    - target: {fileID: 4295532554664328, guid: 850b86aab8aa72b4588ede6ced2d4cf6, type: 2}
      propertyPath: m_LocalScale.x
      value: 200
      objectReference: {fileID: 0}
    - target: {fileID: 4295532554664328, guid: 850b86aab8aa72b4588ede6ced2d4cf6, type: 2}
      propertyPath: m_LocalPosition.x
      value: -538.98
      objectReference: {fileID: 0}
    - target: {fileID: 1938264223754986, guid: 850b86aab8aa72b4588ede6ced2d4cf6, type: 2}
      propertyPath: m_Layer
      value: 9
      objectReference: {fileID: 0}
    - target: {fileID: 1203168788980512, guid: 850b86aab8aa72b4588ede6ced2d4cf6, type: 2}
      propertyPath: m_Layer
      value: 9
      objectReference: {fileID: 0}
    - target: {fileID: 1480784969931878, guid: 850b86aab8aa72b4588ede6ced2d4cf6, type: 2}
      propertyPath: m_Layer
      value: 9
      objectReference: {fileID: 0}
    - target: {fileID: 1374613903264156, guid: 850b86aab8aa72b4588ede6ced2d4cf6, type: 2}
      propertyPath: m_Layer
      value: 9
      objectReference: {fileID: 0}
    - target: {fileID: 114227506169601558, guid: 850b86aab8aa72b4588ede6ced2d4cf6,
        type: 2}
      propertyPath: Snek
      value: 
      objectReference: {fileID: 1416269709503254, guid: f33af9e7510126f4aa39624de610d415,
        type: 2}
    - target: {fileID: 114227506169601558, guid: 850b86aab8aa72b4588ede6ced2d4cf6,
        type: 2}
      propertyPath: SetSizePrefabs.Array.data[6]
      value: 
      objectReference: {fileID: 1883745363979550, guid: 6a8589df13492d5469135e4cf2bb21c2,
        type: 2}
    - target: {fileID: 114227506169601558, guid: 850b86aab8aa72b4588ede6ced2d4cf6,
        type: 2}
      propertyPath: AsteroidPrefabs.Array.data[10]
      value: 
      objectReference: {fileID: 1513659963799544, guid: 6fbb20c270111b744b40e8c9d8bdba3a,
        type: 2}
    m_RemovedComponents: []
  m_SourcePrefab: {fileID: 100100000, guid: 850b86aab8aa72b4588ede6ced2d4cf6, type: 2}
  m_IsPrefabAsset: 0
--- !u!1001 &1125115496
Prefab:
  m_ObjectHideFlags: 0
  serializedVersion: 2
  m_Modification:
    m_TransformParent: {fileID: 0}
    m_Modifications:
    - target: {fileID: 4011255010185316, guid: 6a8589df13492d5469135e4cf2bb21c2, type: 2}
      propertyPath: m_LocalPosition.x
      value: 745.4
      objectReference: {fileID: 0}
    - target: {fileID: 4011255010185316, guid: 6a8589df13492d5469135e4cf2bb21c2, type: 2}
      propertyPath: m_LocalPosition.y
      value: -72.4
      objectReference: {fileID: 0}
    - target: {fileID: 4011255010185316, guid: 6a8589df13492d5469135e4cf2bb21c2, type: 2}
      propertyPath: m_LocalPosition.z
      value: 0
      objectReference: {fileID: 0}
    - target: {fileID: 4011255010185316, guid: 6a8589df13492d5469135e4cf2bb21c2, type: 2}
      propertyPath: m_LocalRotation.x
      value: 0
      objectReference: {fileID: 0}
    - target: {fileID: 4011255010185316, guid: 6a8589df13492d5469135e4cf2bb21c2, type: 2}
      propertyPath: m_LocalRotation.y
      value: 0
      objectReference: {fileID: 0}
    - target: {fileID: 4011255010185316, guid: 6a8589df13492d5469135e4cf2bb21c2, type: 2}
      propertyPath: m_LocalRotation.z
      value: 0
      objectReference: {fileID: 0}
    - target: {fileID: 4011255010185316, guid: 6a8589df13492d5469135e4cf2bb21c2, type: 2}
      propertyPath: m_LocalRotation.w
      value: 1
      objectReference: {fileID: 0}
    - target: {fileID: 4011255010185316, guid: 6a8589df13492d5469135e4cf2bb21c2, type: 2}
      propertyPath: m_RootOrder
      value: 2
      objectReference: {fileID: 0}
    m_RemovedComponents: []
  m_SourcePrefab: {fileID: 100100000, guid: 6a8589df13492d5469135e4cf2bb21c2, type: 2}
  m_IsPrefabAsset: 0
--- !u!1 &1406182601
GameObject:
  m_ObjectHideFlags: 0
  m_CorrespondingSourceObject: {fileID: 0}
  m_PrefabInternal: {fileID: 0}
  serializedVersion: 6
  m_Component:
  - component: {fileID: 1406182603}
  - component: {fileID: 1406182602}
  m_Layer: 0
  m_Name: Directional Light
  m_TagString: Untagged
  m_Icon: {fileID: 0}
  m_NavMeshLayer: 0
  m_StaticEditorFlags: 0
  m_IsActive: 1
--- !u!108 &1406182602
Light:
  m_ObjectHideFlags: 0
  m_CorrespondingSourceObject: {fileID: 0}
  m_PrefabInternal: {fileID: 0}
  m_GameObject: {fileID: 1406182601}
  m_Enabled: 1
  serializedVersion: 8
  m_Type: 1
  m_Color: {r: 1, g: 0.95686275, b: 0.8392157, a: 1}
  m_Intensity: 1
  m_Range: 10
  m_SpotAngle: 30
  m_CookieSize: 10
  m_Shadows:
    m_Type: 2
    m_Resolution: -1
    m_CustomResolution: -1
    m_Strength: 1
    m_Bias: 0.05
    m_NormalBias: 0.4
    m_NearPlane: 0.2
  m_Cookie: {fileID: 0}
  m_DrawHalo: 0
  m_Flare: {fileID: 0}
  m_RenderMode: 0
  m_CullingMask:
    serializedVersion: 2
    m_Bits: 4294967295
  m_Lightmapping: 4
  m_LightShadowCasterMode: 0
  m_AreaSize: {x: 1, y: 1}
  m_BounceIntensity: 1
  m_ColorTemperature: 6570
  m_UseColorTemperature: 0
  m_ShadowRadius: 0
  m_ShadowAngle: 0
--- !u!4 &1406182603
Transform:
  m_ObjectHideFlags: 0
  m_CorrespondingSourceObject: {fileID: 0}
  m_PrefabInternal: {fileID: 0}
  m_GameObject: {fileID: 1406182601}
  m_LocalRotation: {x: 0.40821788, y: -0.23456968, z: 0.10938163, w: 0.8754261}
  m_LocalPosition: {x: 0, y: 3, z: 0}
  m_LocalScale: {x: 1, y: 1, z: 1}
  m_Children: []
  m_Father: {fileID: 0}
  m_RootOrder: 0
  m_LocalEulerAnglesHint: {x: 50, y: -30, z: 0}
