%YAML 1.1
%TAG !u! tag:unity3d.com,2011:
--- !u!1045 &1
EditorBuildSettings:
  m_ObjectHideFlags: 0
  serializedVersion: 2
  m_Scenes:
  - enabled: 0
    path: Assets/Level/Kevin Environment Setup 05.unity
    guid: ed26e452d377a5c4abf84d042ff5eed9
  - enabled: 1
    path: Assets/Level/Kevin Main Scene 03 (shit on for jam entry).unity
    guid: 62b2bcc392e8fc348a312b50ea2bf91d
  m_configObjects: {}
